Making better spaghetti (plots)
…
1. **index**: Your time variable
2. **key**: Variable(s) defining individual groups (or series)

`1. +  2.` determine distinct rows in a tsibble.

(From Earo Wang's talk: [Melt the clock](https://slides.earo.me/rstudioconf19/#8))

---

.large[

```
## # A tsibble: 1,499 x 4 [!]
## # Key:       country [153]
##   country      year height_cm continent
##   <chr>       <dbl>     <dbl> <chr>    
## 1 Afghanistan  1870      168. Asia     
## 2 Afghanistan  1880      166. Asia     
## 3 Afghanistan  1930      167. Asia     
## 4 Afghanistan  1990      167. Asia     
## 5 Afghanistan  2000      161. Asia     
## 6 Albania      1880      170. Europe   
## # … with 1,493 more rows
```
…
**key**  = variable(s) defining individual groups (or series)
]

---

# `sample_n_keys()` to sample ... **keys**

```r
heights %>% sample_n_keys(5)
```

```
## # A tsibble: 46 x 4 [!]
## # Key:       country [5]
##   country  year height_cm continent
##   <chr>   <dbl>     <dbl> <chr>    
## 1 Eritrea  1860      166. Africa   
## 2 Eritrea  1880      165. Africa   
## 3 Eritrea  1930      164  Africa   
## 4 Eritrea  1950      157. Africa   
## 5 Eritrea  1960      156. Africa   
## 6 Eritrea  1970      156  Africa   
## 7 Iraq     1880      168. Asia     
## # … with 39 more rows
```
…
---
class: inverse, center, middle

# Understanding features of your data

## And their role in exploring data

---

## Identify features: summarise down to one observation

```
## # A tsibble: 1,499 x 4 [!]
## # Key:       country [153]
##    country      year height_cm continent
##    <chr>       <dbl>     <dbl> <chr>    
##  1 Afghanistan  1870      168. Asia     
##  2 Afghanistan  1880      166. Asia     
##  3 Afghanistan  1930      167. Asia     
##  4 Afghanistan  1990      167. Asia     
##  5 Afghanistan  2000      161. Asia     
##  6 Albania      1880      170. Europe   
##  7 Albania      1890      170. Europe   
##  8 Albania      1900      169. Europe   
##  9 Albania      2000      168. Europe   
## 10 Algeria      1910      169. Africa   
## # … with 1,489 more rows
```

---

## Identify features: summarise down to one observation

```r
heights %>%
  features(height_cm, 
*          feat_five_num)
```

```
## # A tibble: 153 x 6
##   country       min   q25   med   q75   max
##   <chr>       <dbl> <dbl> <dbl> <dbl> <dbl>
## 1 Afghanistan  161.  164.  167.  168.  168.
## 2 Albania      168.  168.  170.  170.  170.
## 3 Algeria      166.  168.  169   170.  171.
## 4 Angola       159.  160.  167.  168.  169.
## 5 Argentina    167.  168.  168.  170.  174.
## 6 Armenia      164.  166.  169.  172.  172.
## 7 Australia    170   171.  172.  173.  178.
## # … with 146 more rows
```
…
## Join this feature back to the data

---

## Some alternative

---

```r
heights %>%
  features(height_cm, feat_ranges)
```

```
## # A tibble: 153 x 5
##    country       min   max range_diff   iqr
##    <chr>       <dbl> <dbl>      <dbl> <dbl>
##  1 Afghanistan  161.  168.       7     3.27
##  2 Albania      168.  170.       2.20  1.53
##  3 Algeria      166.  171.       5.06  2.15
##  4 Angola       159.  169.      10.5   7.87
##  5 Argentina    167.  174.       7     2.21
##  6 Armenia      164.  172.       8.82  5.30
##  7 Australia    170   178.       8.4   2.58
##  8 Austria      162.  179.      17.2   5.35
##  9 Azerbaijan   170.  172.       1.97  1.12
## 10 Bahrain      161.  164        3.3   2.75
## # … with 143 more rows
```

---

```r
heights %>%
  features(height_cm, feat_monotonic)
```

```
## # A tibble: 153 x 5
##    country     increase decrease unvary monotonic
##    <chr>       <lgl>    <lgl>    <lgl>  <lgl>    
##  1 Afghanistan FALSE    FALSE    FALSE  FALSE    
##  2 Albania     FALSE    TRUE     FALSE  TRUE     
##  3 Algeria     FALSE    FALSE    FALSE  FALSE    
##  4 Angola      FALSE    FALSE    FALSE  FALSE    
##  5 Argentina   FALSE    FALSE    FALSE  FALSE    
##  6 Armenia     FALSE    FALSE    FALSE  FALSE    
##  7 Australia   FALSE    FALSE    FALSE  FALSE    
##  8 Austria     FALSE    FALSE    FALSE  FALSE    
##  9 Azerbaijan  FALSE    FALSE    FALSE  FALSE    
## 10 Bahrain     TRUE     FALSE    FALSE  TRUE     
## # … with 143 more rows
```

---

```r
heights %>%
  features(height_cm, feat_spread)
```

```
## # A tibble: 153 x 5
##    country        var    sd   mad   iqr
##    <chr>        <dbl> <dbl> <dbl> <dbl>
##  1 Afghanistan  7.20  2.68  1.65   3.27
##  2 Albania      0.950 0.975 0.667  1.53
##  3 Algeria      3.30  1.82  0.741  2.15
##  4 Angola      16.9   4.12  3.11   7.87
##  5 Argentina    2.89  1.70  1.36   2.21
##  6 Armenia     10.6   3.26  3.60   5.30
##  7 Australia    7.63  2.76  1.66   2.58
##  8 Austria     26.6   5.16  3.93   5.35
##  9 Azerbaijan   0.516 0.718 0.621  1.12
## 10 Bahrain      3.42  1.85  0.297  2.75
## # … with 143 more rows
```
…
# Example: What is the growth of countries like?

---

# `key_slope`: Fit a linear model to each key

```r
heights_slope <- key_slope(heights, height_cm ~ year)
heights_slope
```

```
## # A tibble: 153 x 3
##    country     .intercept .slope_year
##    <chr>            <dbl>       <dbl>
##  1 Afghanistan      217.      -0.0263
##  2 Albania          202.      -0.0170
##  3 Algeria          111.       0.0297
##  4 Angola            43.9      0.0648
##  5 Argentina        147.       0.0117
##  6 Armenia           87.9      0.0419
##  7 Australia         46.1      0.0665
##  8 Austria           38.2      0.0695
##  9 Azerbaijan       150.       0.0111
## 10 Bahrain         -157.       0.165 
## # … with 143 more rows
```
…
---

# Join back to data

```r
heights_near <- heights_slope_near %>% 
  left_join(heights, by = "country") 

heights_near
```

```
## # A tibble: 67 x 8
##    country .slope_year stat  stat_value stat_diff  year height_cm continent
##    <chr>         <dbl> <fct>      <dbl>     <dbl> <dbl>     <dbl> <chr>    
##  1 Eritrea     -0.102  min      -0.102   0         1860      166. Africa   
##  2 Eritrea     -0.102  min      -0.102   0         1880      165. Africa   
##  3 Eritrea     -0.102  min      -0.102   0         1930      164  Africa   
##  4 Eritrea     -0.102  min      -0.102   0         1950      157. Africa   
##  5 Eritrea     -0.102  min      -0.102   0         1960      156. Africa   
##  6 Eritrea     -0.102  min      -0.102   0         1970      156  Africa   
##  7 Tajiki…      0.0199 q_25      0.0205  0.000632  1860      165  Asia     
##  8 Tajiki…      0.0199 q_25      0.0205  0.000632  1870      165. Asia     
##  9 Tajiki…      0.0199 q_25      0.0205  0.000632  1880      167. Asia     
## 10 Tajiki…      0.0199 q_25      0.0205  0.000632  1890      166. Asia     
## # … with 57 more rows
```
…
